rx_logic.vcd
$date
	Wed Apr 15 11:16:15 2026
$end
$version
	Icarus Verilog
$end
$timescale
	1ns
$end
$scope module rx_logic $end
$var wire 3 ! baud_rate [2:0] $end
$var wire 1 " clk $end
$var wire 1 # rst_n $end
$var wire 1 $ rx_data $end
$var wire 1 % rx_en $end
$var reg 1 & baud_tick $end
$var reg 4 ' bit_count [3:0] $end
$var reg 16 ( counter [15:0] $end
$var reg 2 ) current_state [1:0] $end
$var reg 2 * next_state [1:0] $end
$var reg 1 + rx_busy $end
$var reg 8 , rx_out [7:0] $end
$var reg 8 - rx_shift_reg [7:0] $end
$upscope $end
$enddefinitions $end
$comment Show the parameter values. $end
$dumpall
$end
#0
$dumpvars
bx -
bx ,
0+
b0 *
b0 )
b0 (
b0 '
0&
0%
1$
0#
1"
b0 !
$end
#5
0"
#10
1#
1"
#15
0"
#20
b1 (
bx1 -
1"
#21
b0 (
0#
#26
0"
#31
1"
#36
0"
#41
1#
1"
#46
0"
#51
1%
b1 (
1"
#56
0"
#61
b10 (
1"
#66
0"
#71
b1 *
0$
b11 (
1"
#76
0"
#81
1+
bx0 -
b100 (
b1 )
1"
#86
0"
#91
b101 (
1"
#96
0"
#101
b110 (
1"
#106
0"
#111
b111 (
1"
#116
0"
#121
b1000 (
1"
#126
0"
#131
b1001 (
1"
#136
0"
#141
b1010 (
1"
#146
0"
#151
b11 *
1&
b0 (
1"
#156
0"
#161
1+
b1 ,
b1 (
0&
b11 )
1"
#166
0"
#171
1$
b10 (
1"
#176
0"
#181
bx1 -
b11 (
1"
#186
0"
#191
b100 (
1"
#196
0"
#201
b101 (
1"
#206
0"
#211
b110 (
1"
#216
0"
#221
b111 (
1"
#226
0"
#231
b1000 (
1"
#236
0"
#241
b1001 (
1"
#246
0"
#251
b1010 (
1"
#256
0"
#261
1&
b0 (
1"
#266
0"
#271
b1 (
0&
b1 '
1"
#276
0"
#281
bx11 -
b10 (
1"
#286
0"
#291
b11 (
1"
#296
0"
#301
b100 (
1"
#306
0"
#311
b101 (
1"
#316
0"
#321
b110 (
1"
#326
0"
#331
b111 (
1"
#336
0"
#341
b1000 (
1"
#346
0"
#351
b1001 (
1"
#356
0"
#361
b1010 (
1"
#366
0"
#371
0$
1&
b0 (
1"
#376
0"
#381
bx01 -
b10 '
b1 (
0&
1"
#386
0"
#391
b10 (
bx001 -
1"
#396
0"
#401
b11 (
1"
#406
0"
#411
b100 (
1"
#416
0"
#421
b101 (
1"
#426
0"
#431
b110 (
1"
#436
0"
#441
b111 (
1"
#446
0"
#451
b1000 (
1"
#456
0"
#461
b1001 (
1"
#466
0"
#471
b1010 (
1"
#476
0"
#481
1$
1&
b0 (
1"
#486
0"
#491
b1 (
0&
bx101 -
b11 '
1"
#496
0"
#501
bx1101 -
b10 (
1"
#506
0"
#511
b11 (
1"
#516
0"
#521
b100 (
1"
#526
0"
#531
b101 (
1"
#536
0"
#541
b110 (
1"
#546
0"
#551
b111 (
1"
#556
0"
#561
b1000 (
1"
#566
0"
#571
b1001 (
1"
#576
0"
#581
b1010 (
1"
#586
0"
#591
0$
1&
b0 (
1"
#596
0"
#601
bx0101 -
b100 '
b1 (
0&
1"
#606
0"
#611
b10 (
bx00101 -
1"
#616
0"
#621
b11 (
1"
#626
0"
#631
b100 (
1"
#636
0"
#641
b101 (
1"
#646
0"
#651
b110 (
1"
#656
0"
#661
b111 (
1"
#666
0"
#671
b1000 (
1"
#676
0"
#681
b1001 (
1"
#686
0"
#691
b1010 (
1"
#696
0"
#701
1&
b0 (
1"
#706
0"
#711
b1 (
0&
b101 '
1"
#716
0"
#721
bx000101 -
b10 (
1"
#726
0"
#731
b11 (
1"
#736
0"
#741
b100 (
1"
#746
0"
#751
b101 (
1"
#756
0"
#761
b110 (
1"
#766
0"
#771
b111 (
1"
#776
0"
#781
b1000 (
1"
#786
0"
#791
b1001 (
1"
#796
0"
#801
b1010 (
1"
#806
0"
#811
1$
1&
b0 (
1"
#816
0"
#821
bx100101 -
b110 '
b1 (
0&
1"
#826
0"
#831
b10 (
bx1100101 -
1"
#836
0"
#841
b11 (
1"
#846
0"
#851
b100 (
1"
#856
0"
#861
b101 (
1"
#866
0"
#871
b110 (
1"
#876
0"
#881
b111 (
1"
#886
0"
#891
b1000 (
1"
#896
0"
#901
b1001 (
1"
#906
0"
#911
b1010 (
1"
#916
0"
#921
0$
1&
b0 (
1"
#926
0"
#931
b1 (
0&
bx0100101 -
b111 '
1"
#936
0"
#941
b100101 -
b10 (
1"
#946
0"
#951
b11 (
1"
#956
0"
#961
b100 (
1"
#966
0"
#971
b101 (
1"
#976
0"
#981
b110 (
1"
#986
0"
#991
b111 (
1"
#996
0"
#1001
b1000 (
1"
#1006
0"
#1011
b1001 (
1"
#1016
0"
#1021
b1010 (
1"
#1026
0"
#1031
1$
b10 *
1&
b0 (
1"
#1036
0"
#1041
1+
b10100101 -
b0 '
b1 (
0&
b10 )
1"
#1046
0"
#1051
b10 (
1"
#1056
0"
#1061
b11 (
1"
#1066
0"
#1071
b100 (
1"
#1076
0"
#1081
b101 (
1"
#1086
0"
#1091
b110 (
1"
#1096
0"
#1101
b111 (
1"
#1106
0"
#1111
b1000 (
1"
#1116
0"
#1121
b1001 (
1"
#1126
0"
#1131
b1010 (
1"
#1136
0"
#1141
b0 *
1&
b0 (
1"
#1146
0"
#1151
0+
b0 )
b1 (
0&
b10100101 ,
1"
#1156
0"
#1161
b10 (
1"
