tx_logic.vcd
$date
	Tue Apr  7 12:01:18 2026
$end
$version
	Icarus Verilog
$end
$timescale
	1ns
$end
$scope module tx_logic $end
$var wire 1 ! clk $end
$var wire 1 " rst $end
$var wire 1 # tx_data $end
$var wire 1 $ tx_en $end
$var reg 1 % tx_out $end
$upscope $end
$enddefinitions $end
$comment Show the parameter values. $end
$dumpall
$end
#0
$dumpvars
0%
0$
1#
0"
1!
$end
#5
0!
#10
1!
#11
0#
1$
1"
#16
0!
#21
1!
#26
0!
#31
1#
1!
#36
0!
#41
1%
1!
#46
0!
#51
1!
#56
0!
#61
1!
#66
0!
#71
0#
1!
#76
0!
#81
0%
1!
#86
0!
#91
1#
1!
#96
0!
#101
1%
1!
#106
0!
#111
1!
#117
0!
#122
1!
#127
0!
#132
0#
0$
1!
